{
  "main_color": "#04b594",
  "about_text": "<h3>EG PLANETA ACADEMY<h3><p>Это международный образовательный проект в который входят образовательные организации и учреждения Франции, Испании, Германии, Великобритании, Китая, Мексики, Сербии, Италии. В проекте работают эксперты международного образования, преподаватели иностранных языков и психологи. Мы разные, но мы вместе! Нас объединяет идея интеллектуального развития людей и альтернативного образования без границ.</p>"
}