{
  "v": "5.1.20",
  "fr": 25,
  "ip": 0,
  "op": 126,
  "w": 1920,
  "h": 1080,
  "nm": "Scene_01",
  "ddd": 0,
  "assets": [{
    "id": "image_0",
    "w": 100,
    "h": 100,
    "u": "images/",
    "p": "leon_Eye_zrachek.png",
    "e": 0
  }, {
    "id": "image_1",
    "w": 425,
    "h": 49,
    "u": "images/",
    "p": "leon_eyeClosed.png",
    "e": 0
  }, {
    "id": "image_2",
    "w": 125,
    "h": 125,
    "u": "images/",
    "p": "leon_eyeRight.png",
    "e": 0
  }, {
    "id": "image_3",
    "w": 120,
    "h": 120,
    "u": "images/",
    "p": "leon_eyeLeft.png",
    "e": 0
  }, {
    "id": "image_4",
    "w": 50,
    "h": 30,
    "u": "images/",
    "p": "leon_Mouth_Closed.png",
    "e": 0
  }, {
    "id": "image_5",
    "w": 115,
    "h": 65,
    "u": "images/",
    "p": "leon_Mouth.png",
    "e": 0
  }, {
    "id": "image_6",
    "w": 185,
    "h": 175,
    "u": "images/",
    "p": "leon_Nose.png",
    "e": 0
  }, {
    "id": "image_7",
    "w": 87,
    "h": 263,
    "u": "images/",
    "p": "leon_FootLeft.png",
    "e": 0
  }, {
    "id": "image_8",
    "w": 100,
    "h": 300,
    "u": "images/",
    "p": "leon_FootRight.png",
    "e": 0
  }, {
    "id": "image_9",
    "w": 350,
    "h": 300,
    "u": "images/",
    "p": "leon_HandLeft.png",
    "e": 0
  }, {
    "id": "image_10",
    "w": 300,
    "h": 300,
    "u": "images/",
    "p": "leon_HandRight.png",
    "e": 0
  }, {
    "id": "image_11",
    "w": 900,
    "h": 700,
    "u": "images/",
    "p": "leon_Head.png",
    "e": 0
  }, {
    "id": "image_12",
    "w": 378,
    "h": 996,
    "u": "images/",
    "p": "leon_Body.png",
    "e": 0
  }, {
    "id": "comp_0",
    "layers": [{
      "ddd": 0,
      "ind": 1,
      "ty": 2,
      "nm": "leon_Eye_zrachek_Right",
      "parent": 4,
      "refId": "image_0",
      "sr": 1,
      "ks": {
        "o": {
          "a": 0,
          "k": 100,
          "ix": 11
        },
        "r": {
          "a": 0,
          "k": 0,
          "ix": 10
        },
        "p": {
          "a": 0,
          "k": [79.253, 64.448, 0],
          "ix": 2
        },
        "a": {
          "a": 0,
          "k": [50, 50, 0],
          "ix": 1
        },
        "s": {
          "a": 0,
          "k": [101.299, 101.299, 100],
          "ix": 6
        }
      },
      "ao": 0,
      "ip": 0,
      "op": 126,
      "st": 0,
      "bm": 0
    }, {
      "ddd": 0,
      "ind": 2,
      "ty": 2,
      "nm": "leon_Eye_zrachek_Left.ai",
      "cl": "ai",
      "parent": 5,
      "refId": "image_0",
      "sr": 1,
      "ks": {
        "o": {
          "a": 0,
          "k": 100,
          "ix": 11
        },
        "r": {
          "a": 0,
          "k": 0,
          "ix": 10
        },
        "p": {
          "a": 0,
          "k": [60.39, 62.727, 0],
          "ix": 2
        },
        "a": {
          "a": 0,
          "k": [50, 50, 0],
          "ix": 1
        },
        "s": {
          "a": 0,
          "k": [101.299, 101.299, 100],
          "ix": 6
        }
      },
      "ao": 0,
      "ip": 0,
      "op": 126,
      "st": 0,
      "bm": 0
    }, {
      "ddd": 0,
      "ind": 3,
      "ty": 2,
      "nm": "leon_eyeClosed.ai",
      "cl": "ai",
      "parent": 13,
      "refId": "image_1",
      "sr": 1,
      "ks": {
        "o": {
          "a": 0,
          "k": 100,
          "ix": 11
        },
        "r": {
          "a": 0,
          "k": 0,
          "ix": 10
        },
        "p": {
          "a": 1,
          "k": [{
            "i": {
              "x": 0.833,
              "y": 0.833
            },
            "o": {
              "x": 0.167,
              "y": 0.167
            },
            "n": "0p833_0p833_0p167_0p167",
            "t": 21,
            "s": [450, 350, 0],
            "e": [450, 342, 0],
            "to": [0, -1.33333337306976, 0],
            "ti": [0, 0, 0]
          }, {
            "i": {
              "x": 0.833,
              "y": 0.833
            },
            "o": {
              "x": 0.167,
              "y": 0.167
            },
            "n": "0p833_0p833_0p167_0p167",
            "t": 26,
            "s": [450, 342, 0],
            "e": [450, 350, 0],
            "to": [0, 0, 0],
            "ti": [0, 0, 0]
          }, {
            "i": {
              "x": 0.833,
              "y": 0.833
            },
            "o": {
              "x": 0.167,
              "y": 0.167
            },
            "n": "0p833_0p833_0p167_0p167",
            "t": 36,
            "s": [450, 350, 0],
            "e": [450, 342, 0],
            "to": [0, 0, 0],
            "ti": [0, 0, 0]
          }, {
            "i": {
              "x": 0.833,
              "y": 0.833
            },
            "o": {
              "x": 0.167,
              "y": 0.167
            },
            "n": "0p833_0p833_0p167_0p167",
            "t": 46,
            "s": [450, 342, 0],
            "e": [450, 350, 0],
            "to": [0, 0, 0],
            "ti": [0, 0, 0]
          }, {
            "i": {
              "x": 0.833,
              "y": 0.833
            },
            "o": {
              "x": 0.167,
              "y": 0.167
            },
            "n": "0p833_0p833_0p167_0p167",
            "t": 56,
            "s": [450, 350, 0],
            "e": [450, 342, 0],
            "to": [0, 0, 0],
            "ti": [0, 0, 0]
          }, {
            "i": {
              "x": 0.833,
              "y": 0.833
            },
            "o": {
              "x": 0.167,
              "y": 0.167
            },
            "n": "0p833_0p833_0p167_0p167",
            "t": 67,
            "s": [450, 342, 0],
            "e": [450, 350, 0],
            "to": [0, 0, 0],
            "ti": [0, 0, 0]
          }, {
            "i": {
              "x": 0.833,
              "y": 0.833
            },
            "o": {
              "x": 0.167,
              "y": 0.167
            },
            "n": "0p833_0p833_0p167_0p167",
            "t": 77,
            "s": [450, 350, 0],
            "e": [450, 342, 0],
            "to": [0, 0, 0],
            "ti": [0, 0, 0]
          }, {
            "i": {
              "x": 0.833,
              "y": 0.833
            },
            "o": {
              "x": 0.167,
              "y": 0.167
            },
            "n": "0p833_0p833_0p167_0p167",
            "t": 86,
            "s": [450, 342, 0],
            "e": [450, 350, 0],
            "to": [0, 0, 0],
            "ti": [0, 0, 0]
          }, {
            "i": {
              "x": 0.833,
              "y": 0.833
            },
            "o": {
              "x": 0.167,
              "y": 0.167
            },
            "n": "0p833_0p833_0p167_0p167",
            "t": 96,
            "s": [450, 350, 0],
            "e": [450, 342, 0],
            "to": [0, 0, 0],
            "ti": [0, 0, 0]
          }, {
            "i": {
              "x": 0.833,
              "y": 0.833
            },
            "o": {
              "x": 0.167,
              "y": 0.167
            },
            "n": "0p833_0p833_0p167_0p167",
            "t": 106,
            "s": [450, 342, 0],
            "e": [450, 350, 0],
            "to": [0, 0, 0],
            "ti": [0, 0, 0]
          }, {
            "i": {
              "x": 0.833,
              "y": 0.833
            },
            "o": {
              "x": 0.167,
              "y": 0.167
            },
            "n": "0p833_0p833_0p167_0p167",
            "t": 116,
            "s": [450, 350, 0],
            "e": [450, 342, 0],
            "to": [0, 0, 0],
            "ti": [0, 1.33333337306976, 0]
          }, {
            "t": 125
          }],
          "ix": 2
        },
        "a": {
          "a": 0,
          "k": [212.5, 24.5, 0],
          "ix": 1
        },
        "s": {
          "a": 0,
          "k": [99.13, 99.13, 100],
          "ix": 6
        }
      },
      "ao": 0,
      "ip": 19,
      "op": 97,
      "st": 0,
      "bm": 0
    }, {
      "ddd": 0,
      "ind": 4,
      "ty": 2,
      "nm": "leon_eyeRight.ai",
      "cl": "ai",
      "parent": 13,
      "refId": "image_2",
      "sr": 1,
      "ks": {
        "o": {
          "a": 0,
          "k": 100,
          "ix": 11
        },
        "r": {
          "a": 0,
          "k": 0,
          "ix": 10
        },
        "p": {
          "a": 0,
          "k": [266.932, 337.641, 0],
          "ix": 2
        },
        "a": {
          "a": 0,
          "k": [62.5, 62.5, 0],
          "ix": 1
        },
        "s": {
          "a": 1,
          "k": [{
            "i": {
              "x": [0.833, 0.833, 0.833],
              "y": [0.833, 0.833, 0.833]
            },
            "o": {
              "x": [0.167, 0.167, 0.167],
              "y": [0.167, 0.167, 0.167]
            },
            "n": ["0p833_0p833_0p167_0p167", "0p833_0p833_0p167_0p167", "0p833_0p833_0p167_0p167"],
            "t": 16,
            "s": [99.129, 99.129, 100],
            "e": [99.129, 0, 100]
          }, {
            "i": {
              "x": [0.833, 0.833, 0.833],
              "y": [0.833, 0.833, 0.833]
            },
            "o": {
              "x": [0.167, 0.167, 0.167],
              "y": [0.167, 0.167, 0.167]
            },
            "n": ["0p833_0p833_0p167_0p167", "0p833_0p833_0p167_0p167", "0p833_0p833_0p167_0p167"],
            "t": 19,
            "s": [99.129, 0, 100],
            "e": [99.129, 0, 100]
          }, {
            "i": {
              "x": [0.833, 0.833, 0.833],
              "y": [0.833, 0.833, 0.833]
            },
            "o": {
              "x": [0.167, 0.167, 0.167],
              "y": [0.167, 0.167, 0.167]
            },
            "n": ["0p833_0p833_0p167_0p167", "0p833_0p833_0p167_0p167", "0p833_0p833_0p167_0p167"],
            "t": 96,
            "s": [99.129, 0, 100],
            "e": [99.129, 99.129, 100]
          }, {
            "t": 99
          }],
          "ix": 6
        }
      },
      "ao": 0,
      "ip": 0,
      "op": 126,
      "st": 0,
      "bm": 0
    }, {
      "ddd": 0,
      "ind": 5,
      "ty": 2,
      "nm": "leon_eyeLeft.ai",
      "cl": "ai",
      "parent": 13,
      "refId": "image_3",
      "sr": 1,
      "ks": {
        "o": {
          "a": 0,
          "k": 100,
          "ix": 11
        },
        "r": {
          "a": 0,
          "k": 0,
          "ix": 10
        },
        "p": {
          "a": 0,
          "k": [623.026, 336.869, 0],
          "ix": 2
        },
        "a": {
          "a": 0,
          "k": [60, 60, 0],
          "ix": 1
        },
        "s": {
          "a": 1,
          "k": [{
            "i": {
              "x": [0.833, 0.833, 0.833],
              "y": [0.833, 0.833, 0.833]
            },
            "o": {
              "x": [0.167, 0.167, 0.167],
              "y": [0.167, 0.167, 0.167]
            },
            "n": ["0p833_0p833_0p167_0p167", "0p833_0p833_0p167_0p167", "0p833_0p833_0p167_0p167"],
            "t": 16,
            "s": [99.129, 99.129, 100],
            "e": [99.129, 0, 100]
          }, {
            "i": {
              "x": [0.833, 0.833, 0.833],
              "y": [0.833, 0.833, 0.833]
            },
            "o": {
              "x": [0.167, 0.167, 0.167],
              "y": [0.167, 0.167, 0.167]
            },
            "n": ["0p833_0p833_0p167_0p167", "0p833_0p833_0p167_0p167", "0p833_0p833_0p167_0p167"],
            "t": 19,
            "s": [99.129, 0, 100],
            "e": [99.129, 0, 100]
          }, {
            "i": {
              "x": [0.833, 0.833, 0.833],
              "y": [0.833, 0.833, 0.833]
            },
            "o": {
              "x": [0.167, 0.167, 0.167],
              "y": [0.167, 0.167, 0.167]
            },
            "n": ["0p833_0p833_0p167_0p167", "0p833_0p833_0p167_0p167", "0p833_0p833_0p167_0p167"],
            "t": 96,
            "s": [99.129, 0, 100],
            "e": [99.129, 99.129, 100]
          }, {
            "t": 99
          }],
          "ix": 6
        }
      },
      "ao": 0,
      "ip": 0,
      "op": 126,
      "st": 0,
      "bm": 0
    }, {
      "ddd": 0,
      "ind": 6,
      "ty": 2,
      "nm": "leon_Mouth_Closed.ai",
      "cl": "ai",
      "parent": 8,
      "refId": "image_4",
      "sr": 1,
      "ks": {
        "o": {
          "a": 1,
          "k": [{
            "i": {
              "x": [0.833],
              "y": [0.833]
            },
            "o": {
              "x": [0.167],
              "y": [0.167]
            },
            "n": ["0p833_0p833_0p167_0p167"],
            "t": 16,
            "s": [100],
            "e": [0]
          }, {
            "i": {
              "x": [0.833],
              "y": [0.833]
            },
            "o": {
              "x": [0.167],
              "y": [0.167]
            },
            "n": ["0p833_0p833_0p167_0p167"],
            "t": 17,
            "s": [0],
            "e": [0]
          }, {
            "i": {
              "x": [0.833],
              "y": [0.833]
            },
            "o": {
              "x": [0.167],
              "y": [0.167]
            },
            "n": ["0p833_0p833_0p167_0p167"],
            "t": 96,
            "s": [0],
            "e": [100]
          }, {
            "t": 97
          }],
          "ix": 11
        },
        "r": {
          "a": 0,
          "k": 0,
          "ix": 10
        },
        "p": {
          "a": 1,
          "k": [{
            "i": {
              "x": 0.833,
              "y": 0.833
            },
            "o": {
              "x": 0.167,
              "y": 0.167
            },
            "n": "0p833_0p833_0p167_0p167",
            "t": 16,
            "s": [103.217, 109.798, 0],
            "e": [95.217, 109.798, 0],
            "to": [-1.33333337306976, 0, 0],
            "ti": [4, 0, 0]
          }, {
            "i": {
              "x": 0.833,
              "y": 0.833
            },
            "o": {
              "x": 0.167,
              "y": 0.167
            },
            "n": "0p833_0p833_0p167_0p167",
            "t": 17,
            "s": [95.217, 109.798, 0],
            "e": [79.217, 109.798, 0],
            "to": [-4, 0, 0],
            "ti": [2.66666674613953, 0, 0]
          }, {
            "i": {
              "x": 0.833,
              "y": 0.833
            },
            "o": {
              "x": 0.167,
              "y": 0.167
            },
            "n": "0p833_0p833_0p167_0p167",
            "t": 99,
            "s": [79.217, 109.798, 0],
            "e": [79.217, 109.798, 0],
            "to": [0, 0, 0],
            "ti": [0, 0, 0]
          }, {
            "i": {
              "x": 0.833,
              "y": 0.833
            },
            "o": {
              "x": 0.167,
              "y": 0.167
            },
            "n": "0p833_0p833_0p167_0p167",
            "t": 116,
            "s": [79.217, 109.798, 0],
            "e": [103.217, 109.798, 0],
            "to": [4, 0, 0],
            "ti": [-4, 0, 0]
          }, {
            "t": 117
          }],
          "ix": 2
        },
        "a": {
          "a": 0,
          "k": [25, 15, 0],
          "ix": 1
        },
        "s": {
          "a": 0,
          "k": [148.653, 148.653, 100],
          "ix": 6
        }
      },
      "ao": 0,
      "ip": 0,
      "op": 126,
      "st": 0,
      "bm": 0
    }, {
      "ddd": 0,
      "ind": 7,
      "ty": 2,
      "nm": "leon_Mouth.ai",
      "cl": "ai",
      "parent": 8,
      "refId": "image_5",
      "sr": 1,
      "ks": {
        "o": {
          "a": 0,
          "k": 100,
          "ix": 11
        },
        "r": {
          "a": 0,
          "k": 0,
          "ix": 10
        },
        "p": {
          "a": 0,
          "k": [91.718, 100.018, 0],
          "ix": 2
        },
        "a": {
          "a": 0,
          "k": [56.781, 26.421, 0],
          "ix": 1
        },
        "s": {
          "a": 1,
          "k": [{
            "i": {
              "x": [0.833, 0.833, 0.833],
              "y": [0.833, 0.833, 0.833]
            },
            "o": {
              "x": [0.167, 0.167, 0.167],
              "y": [0.167, 0.167, 0.167]
            },
            "n": ["0p833_0p833_0p167_0p167", "0p833_0p833_0p167_0p167", "0p833_0p833_0p167_0p167"],
            "t": 16,
            "s": [101.008, 0, 100],
            "e": [101.008, 101.008, 100]
          }, {
            "i": {
              "x": [0.833, 0.833, 0.833],
              "y": [0.833, 0.833, 0.833]
            },
            "o": {
              "x": [0.167, 0.167, 0.167],
              "y": [0.167, 0.167, 0.167]
            },
            "n": ["0p833_0p833_0p167_0p167", "0p833_0p833_0p167_0p167", "0p833_0p833_0p167_0p167"],
            "t": 26,
            "s": [101.008, 101.008, 100],
            "e": [101.008, 82.008, 100]
          }, {
            "i": {
              "x": [0.833, 0.833, 0.833],
              "y": [0.833, 0.833, 0.833]
            },
            "o": {
              "x": [0.167, 0.167, 0.167],
              "y": [0.167, 0.167, 0.167]
            },
            "n": ["0p833_0p833_0p167_0p167", "0p833_0p833_0p167_0p167", "0p833_0p833_0p167_0p167"],
            "t": 36,
            "s": [101.008, 82.008, 100],
            "e": [101.008, 101.008, 100]
          }, {
            "i": {
              "x": [0.833, 0.833, 0.833],
              "y": [0.833, 0.833, 0.833]
            },
            "o": {
              "x": [0.167, 0.167, 0.167],
              "y": [0.167, 0.167, 0.167]
            },
            "n": ["0p833_0p833_0p167_0p167", "0p833_0p833_0p167_0p167", "0p833_0p833_0p167_0p167"],
            "t": 47,
            "s": [101.008, 101.008, 100],
            "e": [101.008, 82.008, 100]
          }, {
            "i": {
              "x": [0.833, 0.833, 0.833],
              "y": [0.833, 0.833, 0.833]
            },
            "o": {
              "x": [0.167, 0.167, 0.167],
              "y": [0.167, 0.167, 0.167]
            },
            "n": ["0p833_0p833_0p167_0p167", "0p833_0p833_0p167_0p167", "0p833_0p833_0p167_0p167"],
            "t": 57,
            "s": [101.008, 82.008, 100],
            "e": [101.008, 101.008, 100]
          }, {
            "i": {
              "x": [0.833, 0.833, 0.833],
              "y": [0.833, 0.833, 0.833]
            },
            "o": {
              "x": [0.167, 0.167, 0.167],
              "y": [0.167, 0.167, 0.167]
            },
            "n": ["0p833_0p833_0p167_0p167", "0p833_0p833_0p167_0p167", "0p833_0p833_0p167_0p167"],
            "t": 68,
            "s": [101.008, 101.008, 100],
            "e": [101.008, 82.008, 100]
          }, {
            "i": {
              "x": [0.833, 0.833, 0.833],
              "y": [0.833, 0.833, 0.833]
            },
            "o": {
              "x": [0.167, 0.167, 0.167],
              "y": [0.167, 0.167, 0.167]
            },
            "n": ["0p833_0p833_0p167_0p167", "0p833_0p833_0p167_0p167", "0p833_0p833_0p167_0p167"],
            "t": 78,
            "s": [101.008, 82.008, 100],
            "e": [101.008, 101.008, 100]
          }, {
            "i": {
              "x": [0.833, 0.833, 0.833],
              "y": [0.833, 0.833, 0.833]
            },
            "o": {
              "x": [0.167, 0.167, 0.167],
              "y": [0.167, 0.167, 0.167]
            },
            "n": ["0p833_0p833_0p167_0p167", "0p833_0p833_0p167_0p167", "0p833_0p833_0p167_0p167"],
            "t": 87,
            "s": [101.008, 101.008, 100],
            "e": [101.008, 0, 100]
          }, {
            "t": 97
          }],
          "ix": 6
        }
      },
      "ao": 0,
      "ip": 13,
      "op": 126,
      "st": -2,
      "bm": 0
    }, {
      "ddd": 0,
      "ind": 8,
      "ty": 2,
      "nm": "leon_Nose.ai",
      "cl": "ai",
      "parent": 13,
      "refId": "image_6",
      "sr": 1,
      "ks": {
        "o": {
          "a": 0,
          "k": 100,
          "ix": 11
        },
        "r": {
          "a": 0,
          "k": 0,
          "ix": 10
        },
        "p": {
          "a": 0,
          "k": [441.503, 414.885, 0],
          "ix": 2
        },
        "a": {
          "a": 0,
          "k": [92.5, 87.5, 0],
          "ix": 1
        },
        "s": {
          "a": 0,
          "k": [98.729, 98.729, 100],
          "ix": 6
        }
      },
      "ao": 0,
      "ip": 0,
      "op": 126,
      "st": 0,
      "bm": 0
    }, {
      "ddd": 0,
      "ind": 9,
      "ty": 2,
      "nm": "leon_FootLeft.ai",
      "cl": "ai",
      "parent": 14,
      "refId": "image_7",
      "sr": 1,
      "ks": {
        "o": {
          "a": 0,
          "k": 100,
          "ix": 11
        },
        "r": {
          "a": 0,
          "k": 0,
          "ix": 10
        },
        "p": {
          "a": 0,
          "k": [268.661, 847.884, 0],
          "ix": 2
        },
        "a": {
          "a": 0,
          "k": [43.5, 131.5, 0],
          "ix": 1
        },
        "s": {
          "a": 0,
          "k": [96.289, 96.289, 100],
          "ix": 6
        }
      },
      "ao": 0,
      "ip": 0,
      "op": 126,
      "st": 0,
      "bm": 0
    }, {
      "ddd": 0,
      "ind": 10,
      "ty": 2,
      "nm": "leon_FootRight.ai",
      "cl": "ai",
      "parent": 14,
      "refId": "image_8",
      "sr": 1,
      "ks": {
        "o": {
          "a": 0,
          "k": 100,
          "ix": 11
        },
        "r": {
          "a": 0,
          "k": 0,
          "ix": 10
        },
        "p": {
          "a": 0,
          "k": [124.959, 838.512, 0],
          "ix": 2
        },
        "a": {
          "a": 0,
          "k": [50, 150, 0],
          "ix": 1
        },
        "s": {
          "a": 0,
          "k": [103.091, 103.091, 100],
          "ix": 6
        }
      },
      "ao": 0,
      "ip": 0,
      "op": 126,
      "st": 0,
      "bm": 0
    }, {
      "ddd": 0,
      "ind": 11,
      "ty": 2,
      "nm": "leon_HandLeft.ai",
      "cl": "ai",
      "parent": 14,
      "refId": "image_9",
      "sr": 1,
      "ks": {
        "o": {
          "a": 0,
          "k": 100,
          "ix": 11
        },
        "r": {
          "a": 0,
          "k": 0,
          "ix": 10
        },
        "p": {
          "a": 0,
          "k": [312.397, 610.149, 0],
          "ix": 2
        },
        "a": {
          "a": 0,
          "k": [175, 150, 0],
          "ix": 1
        },
        "s": {
          "a": 0,
          "k": [100.86, -100.859, 100],
          "ix": 6
        }
      },
      "ao": 0,
      "ef": [{
        "ty": 5,
        "nm": "Puppet",
        "np": 5,
        "mn": "ADBE FreePin3",
        "ix": 1,
        "en": 1,
        "ef": [{
          "ty": 7,
          "nm": "Puppet Engine",
          "mn": "ADBE FreePin3 Puppet Engine",
          "ix": 1,
          "v": {
            "a": 0,
            "k": 1,
            "ix": 1
          }
        }, {
          "ty": 7,
          "nm": "On Transparent",
          "mn": "ADBE FreePin3 On Transparent",
          "ix": 2,
          "v": {
            "a": 0,
            "k": 0,
            "ix": 2
          }
        }]
      }],
      "ip": 0,
      "op": 126,
      "st": 0,
      "bm": 0
    }, {
      "ddd": 0,
      "ind": 12,
      "ty": 2,
      "nm": "leon_HandRight.ai",
      "cl": "ai",
      "parent": 14,
      "refId": "image_10",
      "sr": 1,
      "ks": {
        "o": {
          "a": 0,
          "k": 100,
          "ix": 11
        },
        "r": {
          "a": 0,
          "k": 0,
          "ix": 10
        },
        "p": {
          "a": 0,
          "k": [78.099, 630.004, 0],
          "ix": 2
        },
        "a": {
          "a": 0,
          "k": [150, 150, 0],
          "ix": 1
        },
        "s": {
          "a": 0,
          "k": [102.05, -102, 100],
          "ix": 6
        }
      },
      "ao": 0,
      "ef": [{
        "ty": 5,
        "nm": "Puppet",
        "np": 5,
        "mn": "ADBE FreePin3",
        "ix": 1,
        "en": 1,
        "ef": [{
          "ty": 7,
          "nm": "Puppet Engine",
          "mn": "ADBE FreePin3 Puppet Engine",
          "ix": 1,
          "v": {
            "a": 0,
            "k": 1,
            "ix": 1
          }
        }, {
          "ty": 7,
          "nm": "On Transparent",
          "mn": "ADBE FreePin3 On Transparent",
          "ix": 2,
          "v": {
            "a": 0,
            "k": 0,
            "ix": 2
          }
        }]
      }],
      "ip": 0,
      "op": 126,
      "st": 0,
      "bm": 0
    }, {
      "ddd": 0,
      "ind": 13,
      "ty": 2,
      "nm": "leon_Head.ai",
      "cl": "ai",
      "parent": 14,
      "refId": "image_11",
      "sr": 1,
      "ks": {
        "o": {
          "a": 0,
          "k": 100,
          "ix": 11
        },
        "r": {
          "a": 0,
          "k": 0,
          "ix": 10
        },
        "p": {
          "a": 0,
          "k": [162.446, 263.702, 0],
          "ix": 2
        },
        "a": {
          "a": 0,
          "k": [450, 350, 0],
          "ix": 1
        },
        "s": {
          "a": 0,
          "k": [101.107, 101.107, 100],
          "ix": 6
        }
      },
      "ao": 0,
      "ip": 0,
      "op": 126,
      "st": 0,
      "bm": 0
    }, {
      "ddd": 0,
      "ind": 14,
      "ty": 2,
      "nm": "leon_Body.ai",
      "cl": "ai",
      "refId": "image_12",
      "sr": 1,
      "ks": {
        "o": {
          "a": 0,
          "k": 100,
          "ix": 11
        },
        "r": {
          "a": 0,
          "k": 0,
          "ix": 10
        },
        "p": {
          "a": 0,
          "k": [984, 770, 0],
          "ix": 2
        },
        "a": {
          "a": 0,
          "k": [189, 498, 0],
          "ix": 1
        },
        "s": {
          "a": 1,
          "k": [{
            "i": {
              "x": [0.833, 0.833, 0.833],
              "y": [1, 1, 0.947]
            },
            "o": {
              "x": [0.167, 0.167, 0.167],
              "y": [0, 0.167, 0.106]
            },
            "n": ["0p833_1_0p167_0", "0p833_1_0p167_0p167", "0p833_0p947_0p167_0p106"],
            "t": 16,
            "s": [99.363, 99.363, 100],
            "e": [99.363, 102, 100]
          }, {
            "i": {
              "x": [0.833, 0.833, 0.833],
              "y": [1, 1, 1]
            },
            "o": {
              "x": [0.167, 0.167, 0.167],
              "y": [0, 0, 0.053]
            },
            "n": ["0p833_1_0p167_0", "0p833_1_0p167_0", "0p833_1_0p167_0p053"],
            "t": 26,
            "s": [99.363, 102, 100],
            "e": [99.363, 99.363, 100]
          }, {
            "i": {
              "x": [0.833, 0.833, 0.833],
              "y": [1, 1, 1]
            },
            "o": {
              "x": [0.167, 0.167, 0.167],
              "y": [0, 0, 0]
            },
            "n": ["0p833_1_0p167_0", "0p833_1_0p167_0", "0p833_1_0p167_0"],
            "t": 36,
            "s": [99.363, 99.363, 100],
            "e": [99.363, 102, 100]
          }, {
            "i": {
              "x": [0.833, 0.833, 0.833],
              "y": [1, 1, 1]
            },
            "o": {
              "x": [0.167, 0.167, 0.167],
              "y": [0, 0, 0]
            },
            "n": ["0p833_1_0p167_0", "0p833_1_0p167_0", "0p833_1_0p167_0"],
            "t": 46,
            "s": [99.363, 102, 100],
            "e": [99.363, 99.363, 100]
          }, {
            "i": {
              "x": [0.833, 0.833, 0.833],
              "y": [1, 1, 1]
            },
            "o": {
              "x": [0.167, 0.167, 0.167],
              "y": [0, 0, 0]
            },
            "n": ["0p833_1_0p167_0", "0p833_1_0p167_0", "0p833_1_0p167_0"],
            "t": 57,
            "s": [99.363, 99.363, 100],
            "e": [99.363, 102, 100]
          }, {
            "i": {
              "x": [0.833, 0.833, 0.833],
              "y": [1, 1, 1]
            },
            "o": {
              "x": [0.167, 0.167, 0.167],
              "y": [0, 0, 0]
            },
            "n": ["0p833_1_0p167_0", "0p833_1_0p167_0", "0p833_1_0p167_0"],
            "t": 67,
            "s": [99.363, 102, 100],
            "e": [99.363, 99.363, 100]
          }, {
            "i": {
              "x": [0.833, 0.833, 0.833],
              "y": [1, 1, 1]
            },
            "o": {
              "x": [0.167, 0.167, 0.167],
              "y": [0, 0, 0]
            },
            "n": ["0p833_1_0p167_0", "0p833_1_0p167_0", "0p833_1_0p167_0"],
            "t": 76,
            "s": [99.363, 99.363, 100],
            "e": [99.363, 102, 100]
          }, {
            "i": {
              "x": [0.833, 0.833, 0.833],
              "y": [1, 0.833, 1]
            },
            "o": {
              "x": [0.167, 0.167, 0.167],
              "y": [0, 0, 0]
            },
            "n": ["0p833_1_0p167_0", "0p833_0p833_0p167_0", "0p833_1_0p167_0"],
            "t": 86,
            "s": [99.363, 102, 100],
            "e": [99.363, 99.363, 100]
          }, {
            "t": 96
          }],
          "ix": 6
        }
      },
      "ao": 0,
      "ip": 0,
      "op": 126,
      "st": 0,
      "bm": 0
    }]
  }, {
    "id": "comp_1",
    "layers": [{
      "ddd": 0,
      "ind": 1,
      "ty": 4,
      "nm": "Clouds",
      "sr": 1,
      "ks": {
        "o": {
          "a": 0,
          "k": 30,
          "ix": 11
        },
        "r": {
          "a": 0,
          "k": 0,
          "ix": 10
        },
        "p": {
          "a": 1,
          "k": [{
            "i": {
              "x": 0.833,
              "y": 0.833
            },
            "o": {
              "x": 0.167,
              "y": 0.167
            },
            "n": "0p833_0p833_0p167_0p167",
            "t": 0,
            "s": [937, 540, 0],
            "e": [989, 540, 0],
            "to": [8.66666698455811, 0, 0],
            "ti": [-8.66666698455811, 0, 0]
          }, {
            "t": 125
          }],
          "ix": 2
        },
        "a": {
          "a": 0,
          "k": [960, 540, 0],
          "ix": 1
        },
        "s": {
          "a": 0,
          "k": [100, 100, 100],
          "ix": 6
        }
      },
      "ao": 0,
      "shapes": [{
        "ty": "gr",
        "it": [{
          "ind": 0,
          "ty": "sh",
          "ix": 1,
          "ks": {
            "a": 0,
            "k": {
              "i": [
                [0, 0],
                [5.142, 11.016],
                [0, 0],
                [13.955, 7.345],
                [0, 0],
                [19.096, 11.751],
                [0, 0],
                [21.299, 5.142],
                [0, 0],
                [17.627, 4.632],
                [0, 0],
                [20.565, -3.672],
                [0, 0],
                [18.362, -4.87],
                [0, 0],
                [11.752, -7.346],
                [0, 0],
                [-27.91, -7.62],
                [0, 0],
                [-30.849, -5.141]
              ],
              "o": [
                [0, 0],
                [-5.141, -11.018],
                [0, 0],
                [-13.955, -7.344],
                [0, 0],
                [-19.097, -11.752],
                [0, 0],
                [-21.3, -5.14],
                [0, 0],
                [-17.627, -4.632],
                [0, 0],
                [-20.565, 3.672],
                [0, 0],
                [-18.361, 4.87],
                [0, 0],
                [-11.75, 7.344],
                [0, 0],
                [27.911, 7.621],
                [0, 0],
                [30.847, 5.141]
              ],
              "v": [
                [708.127, 15.05],
                [783.043, 1.83],
                [747.788, -7.65],
                [753.664, -30.488],
                [678.748, -30.488],
                [678.748, -61.335],
                [627.335, -61.335],
                [607.504, -93.653],
                [576.289, -68.736],
                [561.967, -86.533],
                [531.854, -68.736],
                [498.802, -81.901],
                [512.023, -32.962],
                [477.502, -32.962],
                [495.864, -7.65],
                [467.953, 5.502],
                [528.182, 4.767],
                [559.028, 27.076],
                [607.504, 4.767],
                [661.856, 26.067]
              ],
              "c": true
            },
            "ix": 2
          },
          "nm": "Path 1",
          "mn": "ADBE Vector Shape - Group",
          "hd": false
        }, {
          "ind": 1,
          "ty": "sh",
          "ix": 2,
          "ks": {
            "a": 0,
            "k": {
              "i": [
                [0, 0],
                [3.805, 8.154],
                [0, 0],
                [10.329, 5.436],
                [0, 0],
                [14.134, 8.697],
                [0, 0],
                [15.763, 3.806],
                [0, 0],
                [13.047, 3.429],
                [0, 0],
                [15.22, -2.719],
                [0, 0],
                [13.59, -3.604],
                [0, 0],
                [8.698, -5.437],
                [0, 0],
                [-20.657, -5.64],
                [0, 0],
                [-22.831, -3.805]
              ],
              "o": [
                [0, 0],
                [-3.805, -8.155],
                [0, 0],
                [-10.328, -5.436],
                [0, 0],
                [-14.134, -8.698],
                [0, 0],
                [-15.765, -3.804],
                [0, 0],
                [-13.046, -3.428],
                [0, 0],
                [-15.221, 2.717],
                [0, 0],
                [-13.59, 3.605],
                [0, 0],
                [-8.698, 5.436],
                [0, 0],
                [20.657, 5.641],
                [0, 0],
                [22.832, 3.805]
              ],
              "v": [
                [474.57, -243.944],
                [530.018, -253.729],
                [503.925, -260.745],
                [508.273, -277.648],
                [452.825, -277.648],
                [452.825, -300.479],
                [414.773, -300.479],
                [400.096, -324.399],
                [376.992, -305.957],
                [366.392, -319.129],
                [344.104, -305.957],
                [319.642, -315.7],
                [329.426, -279.48],
                [303.877, -279.48],
                [317.467, -260.745],
                [296.81, -251.011],
                [341.387, -251.554],
                [364.217, -235.043],
                [400.096, -251.554],
                [440.322, -235.79]
              ],
              "c": true
            },
            "ix": 2
          },
          "nm": "Path 2",
          "mn": "ADBE Vector Shape - Group",
          "hd": false
        }, {
          "ind": 2,
          "ty": "sh",
          "ix": 3,
          "ks": {
            "a": 0,
            "k": {
              "i": [
                [0, 0],
                [15.984, 8.413],
                [0, 0],
                [21.873, 13.459],
                [0, 0],
                [24.395, 5.889],
                [0, 0],
                [20.191, 5.305],
                [0, 0],
                [23.556, -4.207],
                [0, 0],
                [21.032, -5.578],
                [0, 0],
                [13.46, -8.414],
                [0, 0],
                [-31.969, -8.728],
                [0, 0],
                [-35.334, -5.888],
                [0, 0],
                [5.89, 12.618]
              ],
              "o": [
                [0, 0],
                [-15.983, -8.412],
                [0, 0],
                [-21.872, -13.461],
                [0, 0],
                [-24.397, -5.888],
                [0, 0],
                [-20.189, -5.306],
                [0, 0],
                [-23.554, 4.206],
                [0, 0],
                [-21.03, 5.578],
                [0, 0],
                [-13.459, 8.412],
                [0, 0],
                [31.968, 8.729],
                [0, 0],
                [35.333, 5.889],
                [0, 0],
                [-5.888, -12.62]
              ],
              "v": [
                [-412.175, 310.77],
                [-405.445, 284.611],
                [-491.254, 284.611],
                [-491.254, 249.279],
                [-550.142, 249.279],
                [-572.855, 212.262],
                [-608.61, 240.801],
                [-625.015, 220.418],
                [-659.505, 240.801],
                [-697.363, 225.723],
                [-682.22, 281.777],
                [-721.76, 281.777],
                [-700.728, 310.77],
                [-732.696, 325.834],
                [-663.711, 324.993],
                [-628.379, 350.545],
                [-572.855, 324.993],
                [-510.602, 349.388],
                [-457.602, 336.77],
                [-371.795, 321.628]
              ],
              "c": true
            },
            "ix": 2
          },
          "nm": "Path 3",
          "mn": "ADBE Vector Shape - Group",
          "hd": false
        }, {
          "ind": 3,
          "ty": "sh",
          "ix": 4,
          "ks": {
            "a": 0,
            "k": {
              "i": [
                [0, 0],
                [21.313, 11.22],
                [0, 0],
                [29.167, 17.948],
                [0, 0],
                [32.531, 7.853],
                [0, 0],
                [26.924, 7.076],
                [0, 0],
                [31.411, -5.609],
                [0, 0],
                [28.046, -7.439],
                [0, 0],
                [17.949, -11.219],
                [0, 0],
                [-42.629, -11.639],
                [0, 0],
                [-47.116, -7.852],
                [0, 0],
                [7.853, 16.827]
              ],
              "o": [
                [0, 0],
                [-21.314, -11.217],
                [0, 0],
                [-29.167, -17.949],
                [0, 0],
                [-32.533, -7.852],
                [0, 0],
                [-26.922, -7.074],
                [0, 0],
                [-31.41, 5.608],
                [0, 0],
                [-28.044, 7.438],
                [0, 0],
                [-17.948, 11.218],
                [0, 0],
                [42.629, 11.641],
                [0, 0],
                [47.117, 7.852],
                [0, 0],
                [-7.852, -16.828]
              ],
              "v": [
                [282.198, 224.995],
                [291.173, 190.112],
                [176.748, 190.112],
                [176.748, 142.998],
                [98.223, 142.998],
                [67.934, 93.637],
                [20.256, 131.694],
                [-1.619, 104.511],
                [-47.612, 131.694],
                [-98.094, 111.587],
                [-77.902, 186.334],
                [-130.627, 186.334],
                [-102.581, 224.995],
                [-145.21, 245.082],
                [-53.221, 243.961],
                [-6.106, 278.034],
                [67.934, 243.961],
                [150.947, 276.492],
                [221.621, 259.665],
                [336.045, 239.473]
              ],
              "c": true
            },
            "ix": 2
          },
          "nm": "Path 4",
          "mn": "ADBE Vector Shape - Group",
          "hd": false
        }, {
          "ind": 4,
          "ty": "sh",
          "ix": 5,
          "ks": {
            "a": 0,
            "k": {
              "i": [
                [0, 0],
                [6.23, 13.349],
                [0, 0],
                [16.909, 8.9],
                [0, 0],
                [23.14, 14.238],
                [0, 0],
                [25.808, 6.23],
                [0, 0],
                [21.36, 5.613],
                [0, 0],
                [24.92, -4.45],
                [0, 0],
                [22.249, -5.9],
                [0, 0],
                [14.24, -8.9],
                [0, 0],
                [-33.819, -9.233],
                [0, 0],
                [-37.379, -6.229]
              ],
              "o": [
                [0, 0],
                [-6.229, -13.35],
                [0, 0],
                [-16.908, -8.899],
                [0, 0],
                [-23.139, -14.24],
                [0, 0],
                [-25.809, -6.229],
                [0, 0],
                [-21.358, -5.613],
                [0, 0],
                [-24.919, 4.449],
                [0, 0],
                [-22.248, 5.902],
                [0, 0],
                [-14.238, 8.9],
                [0, 0],
                [33.819, 9.234],
                [0, 0],
                [37.379, 6.23]
              ],
              "v": [
                [-105.165, -126.169],
                [-14.39, -142.188],
                [-57.108, -153.674],
                [-49.988, -181.347],
                [-140.765, -181.347],
                [-140.765, -218.725],
                [-203.062, -218.725],
                [-227.091, -257.884],
                [-264.915, -227.693],
                [-282.269, -249.257],
                [-318.757, -227.693],
                [-358.806, -243.644],
                [-342.787, -184.346],
                [-384.615, -184.346],
                [-362.366, -153.674],
                [-396.185, -137.739],
                [-323.206, -138.628],
                [-285.829, -111.596],
                [-227.091, -138.628],
                [-161.233, -112.82]
              ],
              "c": true
            },
            "ix": 2
          },
          "nm": "Path 5",
          "mn": "ADBE Vector Shape - Group",
          "hd": false
        }, {
          "ind": 5,
          "ty": "sh",
          "ix": 6,
          "ks": {
            "a": 0,
            "k": {
              "i": [
                [0, 0],
                [-10.528, -12.784],
                [0, 0],
                [-12.344, 0.733],
                [0, 0],
                [0, 0],
                [7.179, -9.029],
                [0, 0],
                [8.787, -2.192],
                [0, 0],
                [3.759, -5.334],
                [0, 0],
                [-6.017, -10.599]
              ],
              "o": [
                [0, 0],
                [10.527, 12.784],
                [0, 0],
                [12.344, -0.733],
                [0, 0],
                [0, 0],
                [-7.179, 9.028],
                [0, 0],
                [-8.785, 2.192],
                [0, 0],
                [-3.76, 5.334],
                [0, 0],
                [6.015, 10.598]
              ],
              "v": [
                [907.112, -273.108],
                [898.841, -255.061],
                [943.96, -246.356],
                [969.215, -234.024],
                [1001.889, -233.994],
                [1002.898, -339.287],
                [978.21, -339.287],
                [970.278, -318.979],
                [936.439, -318.979],
                [936.439, -304.691],
                [886.809, -313.034],
                [907.112, -290.474],
                [851.466, -290.474]
              ],
              "c": true
            },
            "ix": 2
          },
          "nm": "Path 6",
          "mn": "ADBE Vector Shape - Group",
          "hd": false
        }, {
          "ind": 6,
          "ty": "sh",
          "ix": 7,
          "ks": {
            "a": 0,
            "k": {
              "i": [
                [10.733, -21.519],
                [0, 0],
                [23, -13.555],
                [0, 0],
                [13.8, -13.978],
                [0, 0],
                [10.733, -12.267],
                [0, 0],
                [-32.2, -7.667],
                [0, 0],
                [-19.933, -4.6],
                [0, 0],
                [0, 0]
              ],
              "o": [
                [-10.733, 21.521],
                [0, 0],
                [-23, 13.556],
                [0, 0],
                [-13.799, 13.976],
                [0, 0],
                [-10.732, 12.267],
                [0, 0],
                [32.198, 7.666],
                [0, 0],
                [19.933, 4.6],
                [0, 0],
                [0, 0]
              ],
              "v": [
                [923, 146.61],
                [923, 172.974],
                [831.002, 172.974],
                [806.469, 197.087],
                [746.669, 197.087],
                [763.535, 229.463],
                [670.004, 247.863],
                [786.535, 257.268],
                [785.003, 287.729],
                [864.734, 276.996],
                [901.534, 298.462],
                [1001.422, 292.331],
                [1003, 127.784]
              ],
              "c": true
            },
            "ix": 2
          },
          "nm": "Path 7",
          "mn": "ADBE Vector Shape - Group",
          "hd": false
        }, {
          "ind": 7,
          "ty": "sh",
          "ix": 8,
          "ks": {
            "a": 0,
            "k": {
              "i": [
                [0, 0],
                [13.37, 10.399],
                [0, 0],
                [17.826, 9.178],
                [0, 0],
                [35.654, 15.503],
                [0, 0],
                [21.293, 17.827],
                [0, 0],
                [27.73, 26.412],
                [0, 0],
                [0, 0],
                [0, 0],
                [-42.586, -16.629],
                [0, 0],
                [-41.376, -16.629]
              ],
              "o": [
                [0, 0],
                [-13.369, -10.399],
                [0, 0],
                [-17.827, -9.178],
                [0, 0],
                [-35.653, -15.502],
                [0, 0],
                [-21.293, -17.826],
                [0, 0],
                [-27.731, -26.41],
                [0, 0],
                [0, 0],
                [0, 0],
                [42.586, 16.629],
                [0, 0],
                [41.375, 16.629]
              ],
              "v": [
                [-727.416, 49.948],
                [-613.029, 32.406],
                [-687.307, 24.978],
                [-670.965, -6.483],
                [-714.047, -6.815],
                [-714.047, -51.432],
                [-809.122, -37.603],
                [-834.872, -76.04],
                [-895.284, -87.96],
                [-925.986, -133.648],
                [-1031, -107.236],
                [-1025.356, 57.739],
                [-991.846, 46.534],
                [-935.89, 75.775],
                [-864.583, 46.534],
                [-810.828, 75.775]
              ],
              "c": true
            },
            "ix": 2
          },
          "nm": "Path 8",
          "mn": "ADBE Vector Shape - Group",
          "hd": false
        }, {
          "ind": 8,
          "ty": "sh",
          "ix": 9,
          "ks": {
            "a": 0,
            "k": {
              "i": [
                [0, 0],
                [-18.521, -7.232],
                [0, 0],
                [-17.995, -7.232],
                [0, 0],
                [5.815, 4.522],
                [0, 0],
                [7.753, 3.992],
                [0, 0],
                [15.506, 6.742],
                [0, 0],
                [9.261, 7.753],
                [0, 0],
                [12.06, 11.487],
                [0, 0],
                [0, 0]
              ],
              "o": [
                [0, 0],
                [18.522, 7.232],
                [0, 0],
                [17.995, 7.232],
                [0, 0],
                [-5.815, -4.523],
                [0, 0],
                [-7.753, -3.992],
                [0, 0],
                [-15.507, -6.742],
                [0, 0],
                [-9.26, -7.753],
                [0, 0],
                [-12.06, -11.486],
                [0, 0],
                [0, 0]
              ],
              "v": [
                [-1012.907, -354.52],
                [-988.571, -341.803],
                [-957.559, -354.52],
                [-934.18, -341.803],
                [-897.902, -353.035],
                [-848.153, -360.664],
                [-880.458, -363.895],
                [-873.351, -377.578],
                [-892.087, -377.722],
                [-892.087, -397.127],
                [-933.437, -391.113],
                [-944.637, -407.829],
                [-970.911, -413.014],
                [-984.264, -432.884],
                [-1029.936, -421.397],
                [-1027.481, -349.646]
              ],
              "c": true
            },
            "ix": 2
          },
          "nm": "Path 9",
          "mn": "ADBE Vector Shape - Group",
          "hd": false
        }, {
          "ty": "fl",
          "c": {
            "a": 0,
            "k": [0.980000035903, 0.980000035903, 0.980000035903, 1],
            "ix": 4
          },
          "o": {
            "a": 0,
            "k": 100,
            "ix": 5
          },
          "r": 1,
          "nm": "Fill 1",
          "mn": "ADBE Vector Graphic - Fill",
          "hd": false
        }, {
          "ty": "tr",
          "p": {
            "a": 0,
            "k": [960, 359.274],
            "ix": 2
          },
          "a": {
            "a": 0,
            "k": [0, 0],
            "ix": 1
          },
          "s": {
            "a": 0,
            "k": [100, 100],
            "ix": 3
          },
          "r": {
            "a": 0,
            "k": 0,
            "ix": 6
          },
          "o": {
            "a": 0,
            "k": 100,
            "ix": 7
          },
          "sk": {
            "a": 0,
            "k": 0,
            "ix": 4
          },
          "sa": {
            "a": 0,
            "k": 0,
            "ix": 5
          },
          "nm": "Transform"
        }],
        "nm": "Group 53",
        "np": 10,
        "cix": 2,
        "ix": 1,
        "mn": "ADBE Vector Group",
        "hd": false
      }],
      "ip": 0,
      "op": 250,
      "st": 0,
      "bm": 0
    }, {
      "ddd": 0,
      "ind": 2,
      "ty": 4,
      "nm": "Back",
      "sr": 1,
      "ks": {
        "o": {
          "a": 0,
          "k": 100,
          "ix": 11
        },
        "r": {
          "a": 0,
          "k": 0,
          "ix": 10
        },
        "p": {
          "a": 0,
          "k": [960, 540, 0],
          "ix": 2
        },
        "a": {
          "a": 0,
          "k": [960, 540, 0],
          "ix": 1
        },
        "s": {
          "a": 0,
          "k": [100, 100, 100],
          "ix": 6
        }
      },
      "ao": 0,
      "shapes": [{
        "ty": "gr",
        "it": [{
          "ind": 0,
          "ty": "sh",
          "ix": 1,
          "ks": {
            "a": 0,
            "k": {
              "i": [
                [0, 0],
                [0, 0],
                [0, 0],
                [0, 0]
              ],
              "o": [
                [0, 0],
                [0, 0],
                [0, 0],
                [0, 0]
              ],
              "v": [
                [-959.5, 539.75],
                [959.5, 539.75],
                [959.5, -539.75],
                [-959.5, -539.75]
              ],
              "c": true
            },
            "ix": 2
          },
          "nm": "Path 1",
          "mn": "ADBE Vector Shape - Group",
          "hd": false
        }, {
          "ty": "fl",
          "c": {
            "a": 0,
            "k": [0.016000001571, 0.705999995213, 0.57599995931, 1],
            "ix": 4
          },
          "o": {
            "a": 0,
            "k": 100,
            "ix": 5
          },
          "r": 1,
          "nm": "Fill 1",
          "mn": "ADBE Vector Graphic - Fill",
          "hd": false
        }, {
          "ty": "tr",
          "p": {
            "a": 0,
            "k": [959.5, 540.25],
            "ix": 2
          },
          "a": {
            "a": 0,
            "k": [0, 0],
            "ix": 1
          },
          "s": {
            "a": 0,
            "k": [100, 100],
            "ix": 3
          },
          "r": {
            "a": 0,
            "k": 0,
            "ix": 6
          },
          "o": {
            "a": 0,
            "k": 100,
            "ix": 7
          },
          "sk": {
            "a": 0,
            "k": 0,
            "ix": 4
          },
          "sa": {
            "a": 0,
            "k": 0,
            "ix": 5
          },
          "nm": "Transform"
        }],
        "nm": "Back",
        "np": 2,
        "cix": 2,
        "ix": 1,
        "mn": "ADBE Vector Group",
        "hd": false
      }],
      "ip": 0,
      "op": 250,
      "st": 0,
      "bm": 0
    }]
  }],
  "layers": [{
    "ddd": 0,
    "ind": 1,
    "ty": 0,
    "nm": "Leon",
    "refId": "comp_0",
    "sr": 1,
    "ks": {
      "o": {
        "a": 0,
        "k": 100,
        "ix": 11
      },
      "r": {
        "a": 0,
        "k": 0,
        "ix": 10
      },
      "p": {
        "a": 0,
        "k": [960, 540, 0],
        "ix": 2
      },
      "a": {
        "a": 0,
        "k": [960, 540, 0],
        "ix": 1
      },
      "s": {
        "a": 0,
        "k": [100, 100, 100],
        "ix": 6
      }
    },
    "ao": 0,
    "w": 1920,
    "h": 1080,
    "ip": 0,
    "op": 126,
    "st": 0,
    "bm": 0
  }, {
    "ddd": 0,
    "ind": 2,
    "ty": 0,
    "nm": "Background",
    "refId": "comp_1",
    "sr": 1,
    "ks": {
      "o": {
        "a": 0,
        "k": 100,
        "ix": 11
      },
      "r": {
        "a": 0,
        "k": 0,
        "ix": 10
      },
      "p": {
        "a": 0,
        "k": [960, 540, 0],
        "ix": 2
      },
      "a": {
        "a": 0,
        "k": [960, 540, 0],
        "ix": 1
      },
      "s": {
        "a": 0,
        "k": [100, 100, 100],
        "ix": 6
      }
    },
    "ao": 0,
    "w": 1920,
    "h": 1080,
    "ip": 0,
    "op": 128,
    "st": 0,
    "bm": 0
  }],
  "markers": []
}